Teste_Alelo - Classificação
…
heroes_rec <-
  recipe(alignment ~ .,data = train) %>% 
  step_rm(name,weight, n_poderes, height, imc) %>%
  step_impute_knn(all_nominal_predictors(), neighbors = 5) %>%
  step_other(all_nominal_predictors(), threshold = 0.1) %>% 
  step_impute_mean(all_numeric_predictors()) %>% 
  step_normalize(all_numeric_predictors()) %>% 
  #step_BoxCox(all_numeric_predictors()) %>%
  step_dummy(all_nominal_predictors(), one_hot = TRUE) %>% 
  step_nzv() %>%
  step_upsample(alignment)

heroes_rec %>% prep() %>% bake(new_data = NULL)

# A tibble: 588 × 45
   agility accelerated_healing durability stealth energy_absorption flight
     <dbl>               <dbl>      <dbl>   <dbl>             <dbl>  <dbl>
 1  -0.776              -0.573     -0.791  -0.483            -0.347 -0.645
 2  -0.776              -0.573     -0.791  -0.483            -0.347 -0.645
 3  -0.776               1.74      -0.791  -0.483            -0.347 -0.645
 4  -0.776              -0.573     -0.791  -0.483            -0.347 -0.645
 5  -0.776               1.74      -0.791  -0.483            -0.347  1.55 
 6   1.29               -0.573      1.26   -0.483            -0.347  1.55 
 7  -0.776              -0.573     -0.791  -0.483            -0.347  1.55 
 8  -0.776              -0.573      1.26    2.07             -0.347 -0.645
 9  -0.776              -0.573      1.26   -0.483            -0.347 -0.645
10  -0.776              -0.573     -0.791  -0.483            -0.347 -0.645
# ℹ 578 more rows
# ℹ 39 more variables: marksmanship <dbl>, weapons_master <dbl>,
#   longevity <dbl>, intelligence <dbl>, super_strength <dbl>, telepathy <dbl>,
#   energy_blasts <dbl>, stamina <dbl>, super_speed <dbl>, teleportation <dbl>,
#   enhanced_senses <dbl>, immortality <dbl>, reflexes <dbl>,
#   invulnerability <dbl>, force_fields <dbl>, enhanced_hearing <dbl>,
#   uncommon_power <dbl>, alignment <fct>, gender_Female <dbl>, …
…
collect_metrics(xgb_rs)

# A tibble: 32 × 9
    mtry trees min_n .metric  .estimator  mean     n std_err .config            
   <int> <int> <int> <chr>    <chr>      <dbl> <int>   <dbl> <chr>              
 1     1  1417    24 accuracy binary     0.663    10  0.0205 Preprocessor1_Mode…
 2     1  1417    24 roc_auc  binary     0.674    10  0.0254 Preprocessor1_Mode…
 3     4  1743    27 accuracy binary     0.654    10  0.0215 Preprocessor1_Mode…
 4     4  1743    27 roc_auc  binary     0.678    10  0.0272 Preprocessor1_Mode…
 5     6   496    30 accuracy binary     0.642    10  0.0248 Preprocessor1_Mode…
 6     6   496    30 roc_auc  binary     0.671    10  0.0274 Preprocessor1_Mode…
 7    10   647    21 accuracy binary     0.659    10  0.0174 Preprocessor1_Mode…
 8    10   647    21 roc_auc  binary     0.669    10  0.0278 Preprocessor1_Mode…
 9    12   849    13 accuracy binary     0.668    10  0.0174 Preprocessor1_Mode…
10    12   849    13 roc_auc  binary     0.677    10  0.0263 Preprocessor1_Mode…
# ℹ 22 more rows
…
