Teste_Alelo - Regressão
…
Utilização da codificação one-hot nas variáveis categóricas.

(Neste ponto, surge a dúvida sobre a aplicação da codificação one-hot para a variável “categoria_icm”, que possui uma ordem natural)

base_rec <- 
  recipe(weight ~.,data = train) %>% 
  step_impute_mean(all_numeric()) %>% 
  step_normalize(all_numeric_predictors()) %>% 
  step_impute_bag(all_nominal_predictors()) %>% 
  step_other(all_nominal_predictors(), threshold = 0.02) %>% 
  step_dummy(all_nominal_predictors(), one_hot = TRUE)

 base_rec %>% prep() %>% bake(new_data = NULL) #%>% skimr::skim()

# A tibble: 447 × 23
      imc height weight categoria_imc_Abaixo.do.peso categoria_imc_Obesidade.I
    <dbl>  <dbl>  <dbl>                        <dbl>                     <dbl>
 1 -0.948 -1.87    57                              0                         0
 2 -1.07  -2.09    54                              0                         0
 3 -1.35  -0.973   57                              0                         0
 4 -0.779 -1.87    59                              0                         0
 5 -1.39  -2.09    50                              0                         0
 6 -1.33  -1.53    54                              0                         0
 7  0      0       85.1                            0                         0
 8 -1.18  -1.87    54                              0                         0
 9 -1.33  -1.87    52                              0                         0
10 -0.800 -1.53    61                              0                         0
# ℹ 437 more rows
# ℹ 18 more variables: categoria_imc_Obesidade.III <dbl>,
#   categoria_imc_Peso.normal <dbl>, categoria_imc_Sobrepeso <dbl>,
#   categoria_imc_other <dbl>, super_strength_FALSE. <dbl>,
#   super_strength_TRUE. <dbl>, invulnerability_FALSE. <dbl>,
#   invulnerability_TRUE. <dbl>, gender_Female <dbl>, gender_Male <dbl>,
#   eye_color_black <dbl>, eye_color_blue <dbl>, eye_color_brown <dbl>, …
…
Aqui, podemos avaliar as métricas de todos os modelos que foram ajustados. Conforme mencionei, optarei por seguir com o modelo linear.

final_fit <- 
extract_workflow(heroes_rs, "recipe_linear_reg") %>% 
  fit(train)

Vamos acessar os resultados do modelo e analisar a magnitude da influência de cada variável no peso dos personagens.

tidy(final_fit) 

# A tibble: 23 × 5
   term                         estimate std.error statistic   p.value
   <chr>                           <dbl>     <dbl>     <dbl>     <dbl>
 1 (Intercept)                     99.7      7.55     13.2    1.32e-33
 2 imc                             11.0      1.51      7.28   1.57e-12
 3 height                           7.08     0.854     8.29   1.43e-15
 4 categoria_imc_Abaixo.do.peso   -28.6      8.67     -3.30   1.05e- 3
 5 categoria_imc_Obesidade.I       -2.21     6.64     -0.332  7.40e- 1
 6 categoria_imc_Obesidade.III     -9.07     6.20     -1.46   1.44e- 1
 7 categoria_imc_Peso.normal      -19.1      7.46     -2.57   1.06e- 2
 8 categoria_imc_Sobrepeso        -13.7      6.74     -2.04   4.23e- 2
 9 categoria_imc_other             NA       NA        NA     NA       
10 super_strength_FALSE.           -1.12     1.52     -0.736  4.62e- 1
# ℹ 13 more rows
…
